[
  {
    "category": "Professor",
    "grid": {
      "xs": 12,
      "sm": 8,
      "md": 6,
      "lg": 4,
      "xl": 3
    },
    "people": [
      {
        "name": "Zhou Yu",
        "title": "Assistant Professor",
        "bio": "NLP Research",
        "url": "http://zhouyu.cs.ucdavis.edu",
        "portraiturl": "/images/portraits/zhou_yu.jpg"
      }
    ]
  },
  {
    "category": "Postdoctorates",
    "people": [
      {
        "name": "Orianna Demasi",
        "dept": "Computer Science"
      },
      {
        "name": "Michelle Cohn",
        "dept": "Computer Science"
      }
    ]
  },
  {
    "category": "Ph.D. Students",
    "size": "small",
    "people": [
      {
        "name": "Mingyang Zhou",
        "dept": "Computer Science",
        "bio": "NLP Research",
        "portraiturl": "https://it2003.github.io/UCD-ML/images/people/students/MingyangZhou.jpg"
      },
      {
        "name": "Austin Chau",
        "dept": "Computer Science",
        "bio": "NLP Research",
        "url": "https://github.com/austinmchau",
        "portraiturl": "/images/portraits/austin_chau.jpg"
      },
      {
        "name": "Kun Qian",
        "dept": "Computer Science",
        "portraiturl": "/images/portraits/qian_kun.jpg"
      },
      {
        "name": "Weiyan Shi",
        "dept": "Computer Science",
        "url": "https://sites.google.com/ucdavis.edu/wyshi/",
        "portraiturl": "/images/portraits/weiyan_shi.jpg"
      },
      {
        "name": "Qingxiaoyang Zhu",
        "dept": "Computer Science",
        "portraiturl": "/images/portraits/qingxiaoyang_zhu.jpg"
      },
      {
        "name": "Qingyang Wu",
        "dept": "Computer Science",
        "url": "https://qywu.github.io",
        "portraiturl": "/images/portraits/qingyang_wu.jpg"
      },
      {
        "name": "Youzhi Tian",
        "dept": "Computer Science"
      },
      {
        "name": "Minh Nguyen",
        "dept": "Computer Science",
        "portraiturl": "/images/portraits/minh_nguyen.jpg"
      },
      {
        "name": "Patrick Lange",
        "dept": "Computer Science",
        "url": "https://www.langep.com/",
        "portraiturl": "/images/portraits/patrick_lange.jpg"
      },
      {
        "name": "Zhouhao Wang",
        "dept": "Computer Science"
      },
      {
        "name": "David Gros",
        "dept": "Computer Science"
      }
    ]
  },
  {
    "category": "Masters Students",
    "people": [
      {
        "name": "Jing Gu",
        "dept": "Computer Science",
        "url": "https://www.linkedin.com/in/jing-gu-3b3437170/",
        "portraiturl": "/images/portraits/jing_gu.jpg"
      },
      {
        "name": "Yu Li",
        "dept": "Computer Science",
        "url": "http://directory.ucdavis.edu/search/directory_results.shtml?filter=yooli",
        "portraiturl": "/images/portraits/yu_li.jpg"
      },
      {
        "name": "Kai-hui Liang",
        "dept": "Computer Science",
        "portraiturl": "/images/portraits/kaihui_liang.jpg"
      },
      {
        "name": "Karen Lu",
        "dept": "Computer Science",
        "url": "http://www.kxylu.com/",
        "portraiturl": "/images/portraits/karen_lu.jpg"
      },
      {
        "name": "Ishan Jain",
        "dept": "Computer Science",
        "url": "https://www.linkedin.com/in/ishanjain22/",
        "portraiturl": "/images/portraits/ishan_jain.jpg"
      }
    ]
  },
  {
    "category": "Undergraduates",
    "people": [
      {
        "name": "Joshua Arnold",
        "dept": "Computer Science"
      },
      {
        "name": "Zhiyuan Guo",
        "dept": "Computer Science",
        "portraiturl": "/images/portraits/zhiyuan_guo.jpg"
      }
    ]
  },
  {
    "category": "Staff",
    "people": [
      {
        "name": "Shirley Hayati",
        "title": "Junior Research Specialist",
        "url": "http://www.shirley.id/",
        "portraiturl": "/images/portraits/shirley_hayati.jpg"
      }
    ]
  }
]